%YAML 1.1
%TAG !u! tag:unity3d.com,2011:
--- !u!114 &11400000
MonoBehaviour:
  m_ObjectHideFlags: 0
  m_CorrespondingSourceObject: {fileID: 0}
  m_PrefabInstance: {fileID: 0}
  m_PrefabAsset: {fileID: 0}
  m_GameObject: {fileID: 0}
  m_Enabled: 1
  m_EditorHideFlags: 0
  m_Script: {fileID: 11500000, guid: 936cbba20db87b54ab081a22bf606215, type: 3}
  m_Name: PolicemanLoosesJob
  m_EditorClassIdentifier: 
  name: Can't catch - get out!
  description: is chasing the the criminal, but unsuccessfully. He is so upset, that
    quites his job. And everything is because of
  traits_req_human1:
  - {fileID: 11400000, guid: 2d15f76b0592405459b9aeb171345a5b, type: 2}
  traits_req_human2:
  - {fileID: 11400000, guid: 5e47f294fb1e75f4b96ded7310e39e91, type: 2}
  reputationChange: 2
  age_change_human1: -3
  age_change_human2: 0
  Traits_Plus_H1: {fileID: 11400000, guid: 40e0676331ddd7249a8de00589817cd3, type: 2}
  Traits_Minus_H1: {fileID: 11400000, guid: 2d15f76b0592405459b9aeb171345a5b, type: 2}
  Traits_Plus_H2: {fileID: 0}
  Traits_Minus_H2: {fileID: 0}
  traitListPlusH1: []
  traitListMinusH1: []
  traitListPlusH2: []
  traitListMinusH2: []
