%YAML 1.1
%TAG !u! tag:unity3d.com,2011:
--- !u!1045 &1
EditorBuildSettings:
  m_ObjectHideFlags: 0
  serializedVersion: 2
  m_Scenes:
  - enabled: 1
    path: Assets/Client/Scenes/MainMenu.unity
    guid: 97192d950b08840b1a191b73e224f124
  - enabled: 1
    path: Assets/Client/Scenes/Tutor.unity
    guid: 54413162efcb1a64bb424d0bb9158b03
  - enabled: 1
    path: Assets/Client/Scenes/GameScene.unity
    guid: da4d85b35d9e8499fb3fc6ae8df177f7
  m_configObjects: {}
