%YAML 1.1
%TAG !u! tag:unity3d.com,2011:
--- !u!95 &7657551020239117138
Animator:
  serializedVersion: 3
  m_ObjectHideFlags: 0
  m_CorrespondingSourceObject: {fileID: 0}
  m_PrefabInstance: {fileID: 0}
  m_PrefabAsset: {fileID: 0}
  m_GameObject: {fileID: 5473368256355264899}
  m_Enabled: 1
  m_Avatar: {fileID: 0}
  m_Controller: {fileID: 9100000, guid: 684fb4d998025104bbbcb45c3fad22a7, type: 2}
  m_CullingMode: 0
  m_UpdateMode: 0
  m_ApplyRootMotion: 0
  m_LinearVelocityBlending: 0
  m_WarningMessage: 
  m_HasTransformHierarchy: 1
  m_AllowConstantClipSamplingOptimization: 1
  m_KeepAnimatorControllerStateOnDisable: 0
--- !u!1001 &4049041003932778871
PrefabInstance:
  m_ObjectHideFlags: 0
  serializedVersion: 2
  m_Modification:
    m_TransformParent: {fileID: 0}
    m_Modifications:
    - target: {fileID: 8341891611538745588, guid: ebd2cf2fb46e644368ceb8fc31d93e1f,
        type: 3}
      propertyPath: m_Name
      value: Warning Variant
      objectReference: {fileID: 0}
    - target: {fileID: 8341891611538745588, guid: ebd2cf2fb46e644368ceb8fc31d93e1f,
        type: 3}
      propertyPath: m_TagString
      value: Warning
      objectReference: {fileID: 0}
    - target: {fileID: 8341891611538745547, guid: ebd2cf2fb46e644368ceb8fc31d93e1f,
        type: 3}
      propertyPath: m_LocalPosition.x
      value: 0.79
      objectReference: {fileID: 0}
    - target: {fileID: 8341891611538745547, guid: ebd2cf2fb46e644368ceb8fc31d93e1f,
        type: 3}
      propertyPath: m_LocalPosition.y
      value: 0
      objectReference: {fileID: 0}
    - target: {fileID: 8341891611538745547, guid: ebd2cf2fb46e644368ceb8fc31d93e1f,
        type: 3}
      propertyPath: m_LocalPosition.z
      value: 0
      objectReference: {fileID: 0}
    - target: {fileID: 8341891611538745547, guid: ebd2cf2fb46e644368ceb8fc31d93e1f,
        type: 3}
      propertyPath: m_LocalRotation.x
      value: 0
      objectReference: {fileID: 0}
    - target: {fileID: 8341891611538745547, guid: ebd2cf2fb46e644368ceb8fc31d93e1f,
        type: 3}
      propertyPath: m_LocalRotation.y
      value: 0
      objectReference: {fileID: 0}
    - target: {fileID: 8341891611538745547, guid: ebd2cf2fb46e644368ceb8fc31d93e1f,
        type: 3}
      propertyPath: m_LocalRotation.z
      value: 0
      objectReference: {fileID: 0}
    - target: {fileID: 8341891611538745547, guid: ebd2cf2fb46e644368ceb8fc31d93e1f,
        type: 3}
      propertyPath: m_LocalRotation.w
      value: 1
      objectReference: {fileID: 0}
    - target: {fileID: 8341891611538745547, guid: ebd2cf2fb46e644368ceb8fc31d93e1f,
        type: 3}
      propertyPath: m_RootOrder
      value: 0
      objectReference: {fileID: 0}
    - target: {fileID: 8341891611538745547, guid: ebd2cf2fb46e644368ceb8fc31d93e1f,
        type: 3}
      propertyPath: m_LocalEulerAnglesHint.x
      value: 0
      objectReference: {fileID: 0}
    - target: {fileID: 8341891611538745547, guid: ebd2cf2fb46e644368ceb8fc31d93e1f,
        type: 3}
      propertyPath: m_LocalEulerAnglesHint.y
      value: 0
      objectReference: {fileID: 0}
    - target: {fileID: 8341891611538745547, guid: ebd2cf2fb46e644368ceb8fc31d93e1f,
        type: 3}
      propertyPath: m_LocalEulerAnglesHint.z
      value: 0
      objectReference: {fileID: 0}
    - target: {fileID: 8341891611538745547, guid: ebd2cf2fb46e644368ceb8fc31d93e1f,
        type: 3}
      propertyPath: m_LocalScale.x
      value: 5
      objectReference: {fileID: 0}
    - target: {fileID: 8341891611538745547, guid: ebd2cf2fb46e644368ceb8fc31d93e1f,
        type: 3}
      propertyPath: m_LocalScale.y
      value: 5
      objectReference: {fileID: 0}
    - target: {fileID: 8341891611538745547, guid: ebd2cf2fb46e644368ceb8fc31d93e1f,
        type: 3}
      propertyPath: m_LocalScale.z
      value: 5
      objectReference: {fileID: 0}
    m_RemovedComponents: []
  m_SourcePrefab: {fileID: 100100000, guid: ebd2cf2fb46e644368ceb8fc31d93e1f, type: 3}
--- !u!1 &5473368256355264899 stripped
GameObject:
  m_CorrespondingSourceObject: {fileID: 8341891611538745588, guid: ebd2cf2fb46e644368ceb8fc31d93e1f,
    type: 3}
  m_PrefabInstance: {fileID: 4049041003932778871}
  m_PrefabAsset: {fileID: 0}
